{
	"core": [
		"tags",
		"resources",
		"upgrades",
		"tasks",
		"homes",
		"furniture",
		"skills",
		"states",
		"player",
		"spells",
		"monsters",
		"dungeons",
		"clashes",
		"events",
		"classes",
		"armors",
		"weapons",
		"materials",
		"enchants",
		"sections",
		"potions",
		"encounters",
		"locales",
		"stressors",
		"rares",
		"reagents",
		"properties",
		"potencies",
		"hall"
	],
	"modules": [
		"patrons",
		"puppeteer",
		"combattutorial",
		"shian",
		"sackmakers",
		"ritualist",
		"reedburgh",
		"extramats",
		"extraaction",
		"debug",
		"legacy",
		"timerip",
		"pyromancer",
		"experimental",
		"shopkeeping",
		"debitomancy",
		"furniture_upgrades",
		"duelist",
		"halloween",
		"swordplay",
		"martial",
		"companions",
		"contributors"
	]
}
